Lab7/TwistedRingCounter/simulation/qsim/TwistedRingCounter.msim.vcd
$comment
	File created using the following command:
		vcd file TwistedRingCounter.msim.vcd -direction
$end
$date
	Fri Mar 24 15:08:51 2023
$end
$version
	ModelSim Version 10.5b
$end
$timescale
	1ps
$end

$scope module TwistedRingCounter_vlg_vec_tst $end
$var reg 1 ! Clear $end
$var reg 1 " Clock $end
$var reg 1 # Set $end
$var wire 1 $ y0 $end
$var wire 1 % y1 $end
$var wire 1 & y2 $end
$var wire 1 ' y3 $end

$scope module i1 $end
$var wire 1 ( gnd $end
$var wire 1 ) vcc $end
$var wire 1 * unknown $end
$var tri1 1 + devclrn $end
$var tri1 1 , devpor $end
$var tri1 1 - devoe $end
$var wire 1 . ~QUARTUS_CREATED_GND~I_combout $end
$var wire 1 / ~QUARTUS_CREATED_UNVM~~busy $end
$var wire 1 0 ~QUARTUS_CREATED_ADC1~~eoc $end
$var wire 1 1 ~QUARTUS_CREATED_ADC2~~eoc $end
$var wire 1 2 y0~output_o $end
$var wire 1 3 y1~output_o $end
$var wire 1 4 y2~output_o $end
$var wire 1 5 y3~output_o $end
$var wire 1 6 Clear~input_o $end
$var wire 1 7 Set~input_o $end
$var wire 1 8 inst4~1_combout $end
$var wire 1 9 Clock~input_o $end
$var wire 1 : Clock~inputclkctrl_outclk $end
$var wire 1 ; inst3~1_combout $end
$var wire 1 < inst4~0_combout $end
$var wire 1 = inst4~0clkctrl_outclk $end
$var wire 1 > inst3~_emulated_q $end
$var wire 1 ? inst3~0_combout $end
$var wire 1 @ inst2~1_combout $end
$var wire 1 A inst2~_emulated_q $end
$var wire 1 B inst2~0_combout $end
$var wire 1 C inst1~1_combout $end
$var wire 1 D inst1~_emulated_q $end
$var wire 1 E inst1~0_combout $end
$var wire 1 F inst4~3_combout $end
$var wire 1 G inst4~_emulated_q $end
$var wire 1 H inst4~2_combout $end
$upscope $end
$upscope $end
$enddefinitions $end
#0
$dumpvars
0!
0"
0#
0$
0%
0&
0'
0(
1)
x*
1+
1,
1-
0.
z/
z0
z1
02
03
04
05
06
07
08
09
0:
0;
1<
1=
0>
0?
0@
0A
0B
0C
0D
0E
1F
0G
0H
$end
#50000
1"
19
1:
#100000
1!
1#
0"
09
17
16
0:
0<
0=
#150000
1"
19
1:
1G
1H
12
1$
1;
#200000
0"
09
0:
#250000
1"
19
1:
1>
1?
13
1%
1@
#300000
0"
09
0:
#350000
1"
19
1:
1A
1B
14
1&
1C
#400000
0"
09
0:
#450000
1"
19
1:
1D
1E
15
1'
0F
#500000
0"
09
0:
#550000
1"
19
1:
0G
0H
02
0$
0;
#600000
0"
09
0:
#650000
1"
19
1:
0>
0?
03
0%
0@
#700000
0"
09
0:
#750000
1"
19
1:
0A
0B
04
0&
0C
#800000
0"
09
0:
#850000
1"
19
1:
0D
0E
05
0'
1F
#900000
0"
09
0:
#950000
1"
19
1:
1G
1H
12
1$
1;
