Lab1/RippleCarryAdder/simulation/qsim/RippleCarryAdder.msim.vcd
$comment
	File created using the following command:
		vcd file RippleCarryAdder.msim.vcd -direction
$end
$date
	Fri Feb 03 17:08:27 2023
$end
$version
	ModelSim Version 2020.1
$end
$timescale
	1ps
$end

$scope module RippleCarryAdder_vlg_vec_tst $end
$var reg 1 ! A0 $end
$var reg 1 " A1 $end
$var reg 1 # A2 $end
$var reg 1 $ A3 $end
$var reg 1 % B0 $end
$var reg 1 & B1 $end
$var reg 1 ' B2 $end
$var reg 1 ( B3 $end
$var reg 1 ) C0 $end
$var wire 1 * C4 $end
$var wire 1 + S0 $end
$var wire 1 , S1 $end
$var wire 1 - S2 $end
$var wire 1 . S3 $end

$scope module i1 $end
$var wire 1 / gnd $end
$var wire 1 0 vcc $end
$var wire 1 1 unknown $end
$var tri1 1 2 devclrn $end
$var tri1 1 3 devpor $end
$var tri1 1 4 devoe $end
$var wire 1 5 ~QUARTUS_CREATED_GND~I_combout $end
$var wire 1 6 ~QUARTUS_CREATED_UNVM~~busy $end
$var wire 1 7 ~QUARTUS_CREATED_ADC1~~eoc $end
$var wire 1 8 ~QUARTUS_CREATED_ADC2~~eoc $end
$var wire 1 9 C4~output_o $end
$var wire 1 : S0~output_o $end
$var wire 1 ; S1~output_o $end
$var wire 1 < S2~output_o $end
$var wire 1 = S3~output_o $end
$var wire 1 > A2~input_o $end
$var wire 1 ? A0~input_o $end
$var wire 1 @ C0~input_o $end
$var wire 1 A B0~input_o $end
$var wire 1 B inst|inst5~1_combout $end
$var wire 1 C inst|inst5~0_combout $end
$var wire 1 D B1~input_o $end
$var wire 1 E A1~input_o $end
$var wire 1 F inst3|inst5~0_combout $end
$var wire 1 G inst4|inst5~0_combout $end
$var wire 1 H B2~input_o $end
$var wire 1 I inst4|inst5~1_combout $end
$var wire 1 J A3~input_o $end
$var wire 1 K B3~input_o $end
$var wire 1 L inst5|inst5~0_combout $end
$var wire 1 M inst|inst1~0_combout $end
$var wire 1 N inst3|inst1~combout $end
$var wire 1 O inst4|inst1~0_combout $end
$var wire 1 P inst5|inst1~combout $end
$upscope $end
$upscope $end
$enddefinitions $end
#0
$dumpvars
0!
0"
0#
0$
1%
1&
0'
0(
0)
0*
1+
1,
0-
0.
0/
10
x1
12
13
14
05
z6
z7
z8
09
1:
1;
0<
0=
0>
0?
0@
1A
0B
0C
1D
0E
0F
0G
0H
0I
0J
0K
0L
1M
1N
0O
0P
$end
#100000
1!
0%
0&
1'
1H
0D
0A
1?
1O
0N
0;
1<
1-
0,
#200000
1"
0!
1%
1&
1D
1A
0?
1E
1F
1I
0O
0<
0-
1P
1=
1.
#300000
1#
1(
0"
1!
0&
0D
1?
0E
1K
1>
0F
1B
1G
0M
0P
1L
1O
1<
19
0=
0:
0G
0+
0.
1*
1-
0O
1N
1;
0<
0-
1,
#400000
0'
1"
0!
1&
1D
0?
1E
0H
1F
0B
0I
1M
1O
1<
1:
1G
1+
1-
0O
0N
1P
0L
09
1=
0;
0<
0-
0,
1.
0*
0P
1L
19
0=
0.
1*
#500000
1$
0%
0#
0(
1'
0"
1!
1?
0E
1H
0K
0>
0A
1J
0F
1I
0G
1N
1;
0I
1,
1O
1<
1-
1P
0L
09
1=
1.
0*
#600000
0'
1"
0!
0?
1E
0H
1F
0M
0N
0O
0<
0;
0:
0+
0,
0-
1O
1<
1-
#700000
0&
1%
1#
1(
1'
0"
1!
1?
0E
1H
1K
1>
1A
0D
1B
0F
1I
1G
0P
1L
19
0=
0G
0.
1*
1N
0O
1P
1=
0<
1;
1,
0-
1.
#800000
0(
0'
1"
0!
0?
1E
0H
0K
0B
1F
0I
1M
0N
1O
0P
0=
1<
0;
1:
0F
1G
1+
0,
1-
0.
1N
0O
1P
0L
09
1=
0<
1;
0G
1,
0-
1.
0*
1O
0P
1L
19
0=
1<
1-
0.
1*
1P
0L
09
1=
1.
0*
#900000
1!
1?
1B
0M
0:
1F
0+
0N
0;
1G
0,
0O
0<
0-
0P
1L
19
0=
0.
1*
